<svg xmlns="http://www.w3.org/2000/svg" xmlns:xlink="http://www.w3.org/1999/xlink" preserveAspectRatio="xMidYMid" width="26" height="26" viewBox="0 0 26 26">
  <defs>
    <style>
      .cls-1 {
        fill: #3498db;
      }

      .cls-2 {
        fill: #fff;
        fill-rule: evenodd;
      }
    </style>
  </defs>
  <g>
    <rect width="26" height="26" rx="2" ry="2" class="cls-1"/>
    <path d="M14.363,6.719 C13.462,6.719 12.741,6.986 12.199,7.520 C11.657,8.053 11.387,8.805 11.387,9.773 L11.387,11.477 L9.395,11.477 L9.395,13.789 L11.387,13.789 L11.387,19.719 L13.777,19.719 L13.777,13.789 L15.762,13.789 L16.066,11.477 L13.777,11.477 L13.777,10.000 C13.777,9.625 13.855,9.344 14.012,9.156 C14.168,8.969 14.470,8.875 14.918,8.875 L16.145,8.875 L16.145,6.812 C15.723,6.750 15.129,6.719 14.363,6.719 L14.363,6.719 Z" class="cls-2"/>
  </g>
</svg>
