<?xml version="1.0" encoding="utf-8"?>
<!-- Generator: Adobe Illustrator 19.0.0, SVG Export Plug-In . SVG Version: 6.00 Build 0)  -->
<svg version="1.1" baseProfile="tiny" id="Слой_1"
	 xmlns="http://www.w3.org/2000/svg" xmlns:xlink="http://www.w3.org/1999/xlink" x="0px" y="0px" viewBox="0 0 64 64"
	 xml:space="preserve">
<rect id="XMLID_5_" x="2" y="13" fill="none" stroke="#141932" stroke-width="4" stroke-miterlimit="10" width="60.2" height="45.1"/>
<path id="XMLID_4_" fill="none" stroke="#141932" stroke-width="4" stroke-miterlimit="10" d="M24.6,13c0-4.2,3.4-7.5,7.5-7.5
	c4.2,0,7.5,3.4,7.5,7.5"/>
<line id="XMLID_3_" fill="none" stroke="#141932" stroke-width="4" stroke-miterlimit="10" x1="2" y1="40.6" x2="62.2" y2="40.6"/>
<circle id="XMLID_2_" fill="#141932" stroke="#141932" stroke-miterlimit="10" cx="32.1" cy="33.1" r="2.5"/>
</svg>
