<svg xmlns="http://www.w3.org/2000/svg" xmlns:xlink="http://www.w3.org/1999/xlink" preserveAspectRatio="xMidYMid" viewBox="0 0 16 16">
  <defs>
    <style>
      .cls-1 {
        stroke: none;
        fill: none;
      }

      .cls-2 {
        fill: rgba(52,152,219,1);
        fill-rule: evenodd;
      }
    </style>
  </defs>
  <g>
    <rect width="16" height="16" class="cls-1"/>
    <path d="M8.000,0.000 C4.686,0.000 2.000,2.688 2.000,6.000 C2.000,7.539 2.584,8.938 3.537,10.000 L8.000,16.000 L12.463,10.000 C13.416,8.938 14.000,7.539 14.000,6.000 C14.000,2.688 11.312,0.000 8.000,0.000 ZM8.000,8.000 C6.894,8.000 6.000,7.106 6.000,6.000 C6.000,4.897 6.894,4.000 8.000,4.000 C9.103,4.000 10.000,4.897 10.000,6.000 C10.000,7.106 9.103,8.000 8.000,8.000 Z" class="cls-2"/>
  </g>
</svg>
