<?xml version="1.0" encoding="utf-8"?>
<!-- Generator: Adobe Illustrator 19.0.0, SVG Export Plug-In . SVG Version: 6.00 Build 0)  -->
<svg version="1.1" baseProfile="tiny" id="Слой_1"
	 xmlns="http://www.w3.org/2000/svg" xmlns:xlink="http://www.w3.org/1999/xlink" x="0px" y="0px" viewBox="0 0 64 64"
	 xml:space="preserve">
<polygon id="XMLID_3_" fill="none" stroke="#141932" stroke-width="3" stroke-miterlimit="10" points="31.8,1.7 39.6,8 49.7,7.5 
	52.3,17.1 60.7,22.6 57.1,32 60.7,41.4 52.3,46.8 49.7,56.5 39.6,56 31.8,62.3 24,56 14,56.5 11.4,46.8 3,41.4 6.6,32 3,22.6 
	11.4,17.1 14,7.5 24,8 "/>
<polyline id="XMLID_2_" fill="none" stroke="#141932" stroke-width="3" stroke-miterlimit="10" points="47,24.4 29.3,42.1 19.2,32 
	"/>
</svg>
